2A/Semester 7/architecture_des_ordinateurs/mini_projet/fournitures/OpL/output.vcd
$date
   Fri Nov 22 17:07:54 2024
$end
$version
  P.20131013
$end
$timescale
  1ps
$end
$scope module testopl $end
$var wire 1 7! rst $end
$var wire 1 8! clk $end
$var wire 1 T en $end
$var wire 1 \ v1 [7] $end
$var wire 1 [ v1 [6] $end
$var wire 1 Z v1 [5] $end
$var wire 1 Y v1 [4] $end
$var wire 1 X v1 [3] $end
$var wire 1 W v1 [2] $end
$var wire 1 V v1 [1] $end
$var wire 1 U v1 [0] $end
$var wire 1 d v2 [7] $end
$var wire 1 c v2 [6] $end
$var wire 1 b v2 [5] $end
$var wire 1 a v2 [4] $end
$var wire 1 ` v2 [3] $end
$var wire 1 _ v2 [2] $end
$var wire 1 ^ v2 [1] $end
$var wire 1 ] v2 [0] $end
$var wire 1 Q! miso $end
$var wire 1 R! ss $end
$var wire 1 O! sclk $end
$var wire 1 P! mosi $end
$var wire 1 p val_xor [7] $end
$var wire 1 o val_xor [6] $end
$var wire 1 n val_xor [5] $end
$var wire 1 m val_xor [4] $end
$var wire 1 l val_xor [3] $end
$var wire 1 k val_xor [2] $end
$var wire 1 j val_xor [1] $end
$var wire 1 i val_xor [0] $end
$var wire 1 x val_and [7] $end
$var wire 1 w val_and [6] $end
$var wire 1 v val_and [5] $end
$var wire 1 u val_and [4] $end
$var wire 1 t val_and [3] $end
$var wire 1 s val_and [2] $end
$var wire 1 r val_and [1] $end
$var wire 1 q val_and [0] $end
$var wire 1 "! val_or [7] $end
$var wire 1 !! val_or [6] $end
$var wire 1 ~ val_or [5] $end
$var wire 1 } val_or [4] $end
$var wire 1 | val_or [3] $end
$var wire 1 { val_or [2] $end
$var wire 1 z val_or [1] $end
$var wire 1 y val_or [0] $end
$var wire 1 #! busy $end
$scope module Inst_MasterOpl $end
$var wire 1 7! rst $end
$var wire 1 8! clk $end
$var wire 1 T en $end
$var wire 1 \ v1 [7] $end
$var wire 1 [ v1 [6] $end
$var wire 1 Z v1 [5] $end
$var wire 1 Y v1 [4] $end
$var wire 1 X v1 [3] $end
$var wire 1 W v1 [2] $end
$var wire 1 V v1 [1] $end
$var wire 1 U v1 [0] $end
$var wire 1 d v2 [7] $end
$var wire 1 c v2 [6] $end
$var wire 1 b v2 [5] $end
$var wire 1 a v2 [4] $end
$var wire 1 ` v2 [3] $end
$var wire 1 _ v2 [2] $end
$var wire 1 ^ v2 [1] $end
$var wire 1 ] v2 [0] $end
$var wire 1 Q! miso $end
$var wire 1 R! ss $end
$var wire 1 O! sclk $end
$var wire 1 P! mosi $end
$var wire 1 p val_xor [7] $end
$var wire 1 o val_xor [6] $end
$var wire 1 n val_xor [5] $end
$var wire 1 m val_xor [4] $end
$var wire 1 l val_xor [3] $end
$var wire 1 k val_xor [2] $end
$var wire 1 j val_xor [1] $end
$var wire 1 i val_xor [0] $end
$var wire 1 x val_and [7] $end
$var wire 1 w val_and [6] $end
$var wire 1 v val_and [5] $end
$var wire 1 u val_and [4] $end
$var wire 1 t val_and [3] $end
$var wire 1 s val_and [2] $end
$var wire 1 r val_and [1] $end
$var wire 1 q val_and [0] $end
$var wire 1 "! val_or [7] $end
$var wire 1 !! val_or [6] $end
$var wire 1 ~ val_or [5] $end
$var wire 1 } val_or [4] $end
$var wire 1 | val_or [3] $end
$var wire 1 { val_or [2] $end
$var wire 1 z val_or [1] $end
$var wire 1 y val_or [0] $end
$var wire 1 #! busy $end
$var wire 1 9! en_er $end
$var wire 1 M! busy_er $end
$var wire 1 A! din_er [7] $end
$var wire 1 @! din_er [6] $end
$var wire 1 ?! din_er [5] $end
$var wire 1 >! din_er [4] $end
$var wire 1 =! din_er [3] $end
$var wire 1 <! din_er [2] $end
$var wire 1 ;! din_er [1] $end
$var wire 1 :! din_er [0] $end
$var wire 1 L! dout_er [7] $end
$var wire 1 K! dout_er [6] $end
$var wire 1 J! dout_er [5] $end
$var wire 1 I! dout_er [4] $end
$var wire 1 H! dout_er [3] $end
$var wire 1 G! dout_er [2] $end
$var wire 1 F! dout_er [1] $end
$var wire 1 E! dout_er [0] $end
$scope module Inst_er_1octet $end
$var wire 1 7! rst $end
$var wire 1 8! clk $end
$var wire 1 9! en $end
$var wire 1 A! din [7] $end
$var wire 1 @! din [6] $end
$var wire 1 ?! din [5] $end
$var wire 1 >! din [4] $end
$var wire 1 =! din [3] $end
$var wire 1 <! din [2] $end
$var wire 1 ;! din [1] $end
$var wire 1 :! din [0] $end
$var wire 1 Q! miso $end
$var wire 1 O! sclk $end
$var wire 1 P! mosi $end
$var wire 1 L! dout [7] $end
$var wire 1 K! dout [6] $end
$var wire 1 J! dout [5] $end
$var wire 1 I! dout [4] $end
$var wire 1 H! dout [3] $end
$var wire 1 G! dout [2] $end
$var wire 1 F! dout [1] $end
$var wire 1 E! dout [0] $end
$var wire 1 M! busy $end
$upscope $end
$upscope $end
$scope module Inst_SlaveOpl $end
$var wire 1 O! sclk $end
$var wire 1 P! mosi $end
$var wire 1 Q! miso $end
$var wire 1 R! ss $end
$var wire 1 Z! v1 [7] $end
$var wire 1 Y! v1 [6] $end
$var wire 1 X! v1 [5] $end
$var wire 1 W! v1 [4] $end
$var wire 1 V! v1 [3] $end
$var wire 1 U! v1 [2] $end
$var wire 1 T! v1 [1] $end
$var wire 1 S! v1 [0] $end
$var wire 1 b! v2 [7] $end
$var wire 1 a! v2 [6] $end
$var wire 1 `! v2 [5] $end
$var wire 1 _! v2 [4] $end
$var wire 1 ^! v2 [3] $end
$var wire 1 ]! v2 [2] $end
$var wire 1 \! v2 [1] $end
$var wire 1 [! v2 [0] $end
$var wire 1 j! val_xor [7] $end
$var wire 1 i! val_xor [6] $end
$var wire 1 h! val_xor [5] $end
$var wire 1 g! val_xor [4] $end
$var wire 1 f! val_xor [3] $end
$var wire 1 e! val_xor [2] $end
$var wire 1 d! val_xor [1] $end
$var wire 1 c! val_xor [0] $end
$var wire 1 r! val_and [7] $end
$var wire 1 q! val_and [6] $end
$var wire 1 p! val_and [5] $end
$var wire 1 o! val_and [4] $end
$var wire 1 n! val_and [3] $end
$var wire 1 m! val_and [2] $end
$var wire 1 l! val_and [1] $end
$var wire 1 k! val_and [0] $end
$var wire 1 z! val_or [7] $end
$var wire 1 y! val_or [6] $end
$var wire 1 x! val_or [5] $end
$var wire 1 w! val_or [4] $end
$var wire 1 v! val_or [3] $end
$var wire 1 u! val_or [2] $end
$var wire 1 t! val_or [1] $end
$var wire 1 s! val_or [0] $end
$upscope $end
$upscope $end
$enddefinitions $end
#0
$dumpvars
08!
07!
0T
x\
x[
xZ
xY
xX
xW
xV
xU
xd
xc
xb
xa
x`
x_
x^
x]
xQ!
1R!
1O!
xP!
xp
xo
xn
xm
xl
xk
xj
xi
xx
xw
xv
xu
xt
xs
xr
xq
x"!
x!!
x~
x}
x|
x{
xz
xy
0#!
09!
0M!
xA!
x@!
x?!
x>!
x=!
x<!
x;!
x:!
xL!
xK!
xJ!
xI!
xH!
xG!
xF!
xE!
xZ!
xY!
xX!
xW!
xV!
xU!
xT!
xS!
xb!
xa!
x`!
x_!
x^!
x]!
x\!
x[!
0j!
0i!
1h!
1g!
0f!
0e!
1d!
1c!
1r!
0q!
1p!
0o!
0n!
0m!
0l!
0k!
1z!
1y!
0x!
0w!
1v!
1u!
0t!
0s!
$end
#5000
18!
#10000
08!
#15000
18!
#20000
08!
#25000
18!
#30000
08!
#35000
18!
#40000
08!
#45000
18!
#50000
08!
#55000
18!
#60000
08!
#65000
18!
#70000
08!
#75000
18!
#80000
08!
#85000
18!
#90000
08!
#95000
18!
#100000
08!
17!
#105000
18!
#110000
08!
#115000
18!
#120000
08!
#125000
18!
#130000
08!
#135000
18!
#140000
08!
#145000
18!
#150000
08!
#155000
18!
#160000
08!
#165000
18!
#170000
08!
#175000
18!
#180000
08!
#185000
18!
#190000
08!
#195000
18!
#200000
08!
#205000
18!
1T
0\
1[
0Z
1Y
0X
1W
0V
1U
0d
0c
0b
1a
0`
0_
1^
0]
#210000
08!
#215000
18!
0R!
1#!
#220000
08!
#225000
18!
#230000
08!
#235000
18!
0T
#240000
08!
#245000
18!
#250000
08!
#255000
18!
#260000
08!
#265000
18!
#270000
08!
#275000
18!
#280000
08!
#285000
18!
#290000
08!
#295000
18!
#300000
08!
#305000
18!
#310000
08!
#315000
18!
19!
0A!
1@!
0?!
1>!
0=!
1<!
0;!
1:!
#320000
08!
#325000
18!
0Q!
0O!
0P!
09!
1M!
#330000
08!
#335000
18!
1O!
0Z!
#340000
08!
#345000
18!
0O!
1P!
#350000
08!
#355000
18!
1O!
1Y!
#360000
08!
#365000
18!
1Q!
0O!
0P!
#370000
08!
#375000
18!
1O!
0X!
#380000
08!
#385000
18!
0O!
1P!
#390000
08!
#395000
18!
1O!
1W!
#400000
08!
#405000
18!
0Q!
0O!
0P!
#410000
08!
#415000
18!
1O!
0V!
#420000
08!
#425000
18!
0O!
1P!
#430000
08!
#435000
18!
1O!
1U!
#440000
08!
#445000
18!
1Q!
0O!
0P!
#450000
08!
#455000
18!
1O!
0T!
#460000
08!
#465000
18!
0O!
1P!
#470000
08!
#475000
18!
1O!
0M!
0L!
0K!
1J!
1I!
0H!
0G!
1F!
1E!
1S!
#480000
08!
#485000
18!
0p
0o
1n
1m
0l
0k
1j
1i
#490000
08!
#495000
18!
#500000
08!
#505000
18!
#510000
08!
#515000
18!
19!
0@!
0<!
1;!
0:!
#520000
08!
#525000
18!
0O!
0P!
09!
1M!
#530000
08!
#535000
18!
1O!
0b!
#540000
08!
#545000
18!
0Q!
0O!
#550000
08!
#555000
18!
1O!
0a!
#560000
08!
#565000
18!
1Q!
0O!
#570000
08!
#575000
18!
1O!
0`!
#580000
08!
#585000
18!
0Q!
0O!
1P!
#590000
08!
#595000
18!
1O!
1_!
#600000
08!
#605000
18!
0O!
0P!
#610000
08!
#615000
18!
1O!
0^!
#620000
08!
#625000
18!
0O!
#630000
08!
#635000
18!
1O!
0]!
#640000
08!
#645000
18!
0O!
1P!
#650000
08!
#655000
18!
1O!
1\!
#660000
08!
#665000
18!
0O!
0P!
#670000
08!
#675000
18!
1O!
0M!
1L!
0I!
0F!
0E!
0[!
#680000
08!
#685000
18!
1x
0w
1v
0u
0t
0s
0r
0q
#690000
08!
#695000
18!
#700000
08!
#705000
18!
#710000
08!
#715000
18!
19!
0>!
0;!
#720000
08!
#725000
18!
1Q!
0O!
09!
1M!
#730000
08!
#735000
18!
1O!
#740000
08!
#745000
18!
0O!
#750000
08!
#755000
18!
1O!
#760000
08!
#765000
18!
0Q!
0O!
#770000
08!
#775000
18!
1O!
#780000
08!
#785000
18!
0O!
#790000
08!
#795000
18!
1O!
#800000
08!
#805000
18!
1Q!
0O!
#810000
08!
#815000
18!
1O!
#820000
08!
#825000
18!
0O!
#830000
08!
#835000
18!
1O!
#840000
08!
#845000
18!
0Q!
0O!
#850000
08!
#855000
18!
1O!
#860000
08!
#865000
18!
0O!
#870000
08!
#875000
18!
1O!
0M!
1K!
0J!
1H!
1G!
1i!
0h!
0g!
1e!
0r!
0p!
1o!
0z!
1w!
0v!
1t!
1s!
#880000
08!
#885000
18!
1R!
1"!
1!!
0~
0}
1|
1{
0z
0y
0#!
#890000
08!
#895000
18!
#900000
08!
#905000
18!
1T
1Z
0Y
1X
0U
1b
1_
0^
#910000
08!
#915000
18!
0R!
1#!
#920000
08!
#925000
18!
#930000
08!
#935000
18!
#940000
08!
#945000
18!
#950000
08!
#955000
18!
#960000
08!
#965000
18!
#970000
08!
#975000
18!
#980000
08!
#985000
18!
#990000
08!
#995000
18!
#1000000
08!
#1005000
18!
#1010000
08!
#1015000
18!
19!
1@!
1?!
1=!
1<!
#1020000
08!
#1025000
18!
0O!
09!
1M!
#1030000
08!
#1035000
18!
1O!
#1040000
08!
#1045000
18!
1Q!
0O!
1P!
#1050000
08!
#1055000
18!
1O!
#1060000
08!
#1065000
18!
0Q!
0O!
#1070000
08!
#1075000
18!
1O!
1X!
#1080000
08!
#1085000
18!
0O!
0P!
#1090000
08!
#1095000
18!
1O!
0W!
#1100000
08!
#1105000
18!
0O!
1P!
#1110000
08!
#1115000
18!
1O!
1V!
#1120000
08!
#1125000
18!
1Q!
0O!
#1130000
08!
#1135000
18!
1O!
#1140000
08!
#1145000
18!
0O!
0P!
#1150000
08!
#1155000
18!
1O!
#1160000
08!
#1165000
18!
0O!
#1170000
08!
#1175000
18!
1O!
0M!
0L!
0H!
1F!
1E!
0S!
#1180000
08!
#1185000
18!
1o
0n
0m
1k
#1190000
08!
#1195000
18!
#1200000
08!
#1205000
18!
#1210000
08!
#1215000
18!
19!
0@!
1>!
0=!
#1220000
08!
#1225000
18!
0Q!
0O!
09!
1M!
#1230000
08!
#1235000
18!
1O!
#1240000
08!
#1245000
18!
0O!
#1250000
08!
#1255000
18!
1O!
#1260000
08!
#1265000
18!
0O!
1P!
#1270000
08!
#1275000
18!
1O!
1`!
#1280000
08!
#1285000
18!
1Q!
0O!
#1290000
08!
#1295000
18!
1O!
#1300000
08!
#1305000
18!
0Q!
0O!
0P!
#1310000
08!
#1315000
18!
1O!
#1320000
08!
#1325000
18!
0O!
1P!
#1330000
08!
#1335000
18!
1O!
1]!
#1340000
08!
#1345000
18!
0O!
0P!
#1350000
08!
#1355000
18!
1O!
0\!
#1360000
08!
#1365000
18!
0O!
#1370000
08!
#1375000
18!
1O!
0M!
0K!
1I!
0G!
0F!
0E!
#1380000
08!
#1385000
18!
0x
0v
1u
#1390000
08!
#1395000
18!
#1400000
08!
#1405000
18!
#1410000
08!
#1415000
18!
19!
0?!
0>!
0<!
#1420000
08!
#1425000
18!
0O!
09!
1M!
#1430000
08!
#1435000
18!
1O!
#1440000
08!
#1445000
18!
1Q!
0O!
#1450000
08!
#1455000
18!
1O!
#1460000
08!
#1465000
18!
0Q!
0O!
#1470000
08!
#1475000
18!
1O!
#1480000
08!
#1485000
18!
1Q!
0O!
#1490000
08!
#1495000
18!
1O!
#1500000
08!
#1505000
18!
0Q!
0O!
#1510000
08!
#1515000
18!
1O!
#1520000
08!
#1525000
18!
1Q!
0O!
#1530000
08!
#1535000
18!
1O!
#1540000
08!
#1545000
18!
0O!
#1550000
08!
#1555000
18!
1O!
#1560000
08!
#1565000
18!
0O!
#1570000
08!
#1575000
18!
1O!
0M!
1K!
1G!
1F!
1E!
1g!
1f!
0e!
0d!
0c!
1p!
0o!
1m!
1x!
1v!
0t!
0s!
#1580000
08!
#1585000
18!
1R!
0"!
1}
0|
1z
1y
0#!
#1590000
08!
#1595000
18!
0R!
1#!
#1600000
08!
#1605000
18!
#1610000
08!
#1615000
18!
#1620000
08!
#1625000
18!
#1630000
08!
#1635000
18!
#1640000
08!
#1645000
18!
#1650000
08!
#1655000
18!
#1660000
08!
#1665000
18!
#1670000
08!
#1675000
18!
#1680000
08!
#1685000
18!
#1690000
08!
#1695000
18!
19!
1@!
1?!
1=!
1<!
#1700000
08!
#1705000
18!
0Q!
0O!
09!
1M!
#1710000
08!
#1715000
18!
1O!
#1720000
08!
#1725000
18!
1Q!
0O!
1P!
#1730000
08!
#1735000
18!
1O!
#1740000
08!
#1745000
18!
0Q!
0O!
#1750000
08!
#1755000
18!
1O!
#1760000
08!
#1765000
18!
1Q!
0O!
0P!
#1770000
08!
#1775000
18!
1O!
#1780000
08!
#1785000
18!
0O!
1P!
#1790000
08!
#1795000
18!
1O!
#1800000
08!
#1805000
18!
0Q!
0O!
#1810000
08!
#1815000
18!
1O!
#1820000
08!
#1825000
18!
0O!
0P!
#1830000
08!
#1835000
18!
1O!
#1840000
08!
#1845000
18!
0O!
#1850000
08!
#1855000
18!
1O!
0M!
1H!
0G!
0F!
0E!
#1860000
08!
#1865000
18!
1m
1l
0k
0j
0i
#1870000
08!
#1875000
18!
#1880000
08!
#1885000
18!
#1890000
08!
#1895000
18!
19!
0@!
1>!
0=!
#1900000
08!
#1905000
18!
0O!
09!
1M!
#1910000
08!
#1915000
18!
1O!
#1920000
08!
#1925000
18!
0O!
#1930000
08!
#1935000
18!
1O!
#1940000
08!
#1945000
18!
1Q!
0O!
1P!
#1950000
08!
#1955000
18!
1O!
#1960000
08!
#1965000
18!
0Q!
0O!
#1970000
08!
#1975000
18!
1O!
#1980000
08!
#1985000
18!
0O!
0P!
#1990000
08!
#1995000
18!
1O!
#2000000
08!
#2005000
18!
1Q!
0O!
1P!
#2010000
08!
#2015000
18!
1O!
#2020000
08!
#2025000
18!
0Q!
0O!
0P!
#2030000
08!
#2035000
18!
1O!
#2040000
08!
#2045000
18!
0O!
#2050000
08!
#2055000
18!
1O!
0M!
0K!
1J!
0I!
0H!
1G!
#2060000
08!
#2065000
18!
1v
0u
1s
#2070000
08!
#2075000
18!
#2080000
08!
#2085000
18!
#2090000
08!
#2095000
18!
19!
0?!
0>!
0<!
#2100000
08!
#2105000
18!
0O!
09!
1M!
#2110000
08!
#2115000
18!
1O!
#2120000
08!
#2125000
18!
1Q!
0O!
#2130000
08!
#2135000
18!
1O!
#2140000
08!
#2145000
18!
0O!
#2150000
08!
#2155000
18!
1O!
#2160000
08!
#2165000
18!
0O!
#2170000
08!
#2175000
18!
1O!
#2180000
08!
#2185000
18!
0O!
#2190000
08!
#2195000
18!
1O!
#2200000
08!
#2205000
18!
0O!
#2210000
08!
#2215000
18!
1O!
#2220000
08!
#2225000
18!
0Q!
0O!
#2230000
08!
#2235000
18!
1O!
#2240000
08!
#2245000
18!
0O!
#2250000
08!
#2255000
18!
1O!
0M!
1K!
1I!
1H!
#2260000
08!
#2265000
18!
1R!
1~
1|
0z
0y
0#!
#2270000
08!
#2275000
18!
0R!
1#!
#2280000
08!
#2285000
18!
#2290000
08!
#2295000
18!
#2300000
08!
#2305000
18!
#2310000
08!
#2315000
18!
#2320000
08!
#2325000
18!
#2330000
08!
#2335000
18!
#2340000
08!
#2345000
18!
#2350000
08!
#2355000
18!
#2360000
08!
#2365000
18!
#2370000
08!
#2375000
18!
19!
1@!
1?!
1=!
1<!
#2380000
08!
#2385000
18!
0O!
09!
1M!
#2390000
08!
#2395000
18!
1O!
#2400000
08!
#2405000
18!
1Q!
0O!
1P!
#2410000
08!
#2415000
18!
1O!
#2420000
08!
#2425000
18!
0Q!
0O!
#2430000
08!
#2435000
18!
1O!
#2440000
08!
#2445000
18!
1Q!
0O!
0P!
#2450000
08!
#2455000
18!
1O!
#2460000
08!
#2465000
18!
0O!
1P!
#2470000
08!
#2475000
18!
1O!
#2480000
08!
#2485000
18!
0Q!
0O!
#2490000
08!
#2495000
18!
1O!
#2500000
08!
#2505000
18!
0O!
0P!
#2510000
08!
#2515000
18!
1O!
#2520000
08!
#2525000
18!
0O!
#2530000
08!
#2535000
18!
1O!
0M!
0J!
0G!
#2540000
08!
#2545000
18!
#2550000
08!
#2555000
18!
#2560000
08!
#2565000
18!
#2570000
08!
#2575000
18!
19!
0@!
1>!
0=!
#2580000
08!
#2585000
18!
0O!
09!
1M!
#2590000
08!
#2595000
18!
1O!
#2600000
08!
#2605000
18!
0O!
#2610000
08!
#2615000
18!
1O!
#2620000
08!
#2625000
18!
1Q!
0O!
1P!
#2630000
08!
#2635000
18!
1O!
#2640000
08!
#2645000
18!
0Q!
0O!
#2650000
08!
#2655000
18!
1O!
#2660000
08!
#2665000
18!
0O!
0P!
#2670000
08!
#2675000
18!
1O!
#2680000
08!
#2685000
18!
1Q!
0O!
1P!
#2690000
08!
#2695000
18!
1O!
#2700000
08!
#2705000
18!
0Q!
0O!
0P!
#2710000
08!
#2715000
18!
1O!
#2720000
08!
#2725000
18!
0O!
#2730000
08!
#2735000
18!
1O!
0M!
0K!
1J!
0I!
0H!
1G!
#2740000
08!
#2745000
18!
#2750000
08!
#2755000
18!
#2760000
08!
#2765000
18!
#2770000
08!
#2775000
18!
19!
0?!
0>!
0<!
#2780000
08!
#2785000
18!
0O!
09!
1M!
#2790000
08!
#2795000
18!
1O!
#2800000
08!
#2805000
18!
1Q!
0O!
#2810000
08!
#2815000
18!
1O!
#2820000
08!
#2825000
18!
0O!
#2830000
08!
#2835000
18!
1O!
#2840000
08!
#2845000
18!
0O!
#2850000
08!
#2855000
18!
1O!
#2860000
08!
#2865000
18!
0O!
#2870000
08!
#2875000
18!
1O!
#2880000
08!
#2885000
18!
0O!
#2890000
08!
#2895000
18!
1O!
#2900000
08!
#2905000
18!
0Q!
0O!
#2910000
08!
#2915000
18!
1O!
#2920000
08!
#2925000
18!
0O!
#2930000
08!
#2935000
18!
1O!
0M!
1K!
1I!
1H!
#2940000
08!
#2945000
18!
1R!
0#!
#2950000
08!
#2955000
18!
0R!
1#!
#2960000
08!
#2965000
18!
#2970000
08!
#2975000
18!
#2980000
08!
#2985000
18!
#2990000
08!
#2995000
18!
#3000000
08!
#3005000
18!
#3010000
08!
#3015000
18!
#3020000
08!
#3025000
18!
#3030000
08!
#3035000
18!
#3040000
08!
#3045000
18!
#3050000
08!
#3055000
18!
19!
1@!
1?!
1=!
1<!
#3060000
08!
#3065000
18!
0O!
09!
1M!
#3070000
08!
#3075000
18!
1O!
#3080000
08!
#3085000
18!
1Q!
0O!
1P!
#3090000
08!
#3095000
18!
1O!
#3100000
08!
#3105000
18!
0Q!
0O!
#3110000
08!
#3115000
18!
1O!
#3120000
08!
#3125000
18!
1Q!
0O!
0P!
#3130000
08!
#3135000
18!
1O!
#3140000
08!
#3145000
18!
0O!
1P!
#3150000
08!
#3155000
18!
1O!
#3160000
08!
#3165000
18!
0Q!
0O!
#3170000
08!
#3175000
18!
1O!
#3180000
08!
#3185000
18!
0O!
0P!
#3190000
08!
#3195000
18!
1O!
#3200000
08!
#3205000
18!
0O!
#3210000
08!
#3215000
18!
1O!
0M!
0J!
0G!
#3220000
08!
#3225000
18!
#3230000
08!
#3235000
18!
#3240000
08!
#3245000
18!
#3250000
08!
#3255000
18!
19!
0@!
1>!
0=!
#3260000
08!
#3265000
18!
0O!
09!
1M!
#3270000
08!
#3275000
18!
1O!
#3280000
08!
#3285000
18!
0O!
#3290000
08!
#3295000
18!
1O!
#3300000
08!
#3305000
18!
1Q!
0O!
1P!
#3310000
08!
#3315000
18!
1O!
#3320000
08!
#3325000
18!
0Q!
0O!
#3330000
08!
#3335000
18!
1O!
#3340000
08!
#3345000
18!
0O!
0P!
#3350000
08!
#3355000
18!
1O!
#3360000
08!
#3365000
18!
1Q!
0O!
1P!
#3370000
08!
#3375000
18!
1O!
#3380000
08!
#3385000
18!
0Q!
0O!
0P!
#3390000
08!
#3395000
18!
1O!
#3400000
08!
#3405000
18!
0O!
#3410000
08!
#3415000
18!
1O!
0M!
0K!
1J!
0I!
0H!
1G!
#3420000
08!
#3425000
18!
#3430000
08!
#3435000
18!
#3440000
08!
#3445000
18!
#3450000
08!
#3455000
18!
19!
0?!
0>!
0<!
#3460000
08!
#3465000
18!
0O!
09!
1M!
#3470000
08!
#3475000
18!
1O!
#3480000
08!
#3485000
18!
1Q!
0O!
#3490000
08!
#3495000
18!
1O!
#3500000
08!
#3505000
18!
0O!
#3510000
08!
#3515000
18!
1O!
#3520000
08!
#3525000
18!
0O!
#3530000
08!
#3535000
18!
1O!
#3540000
08!
#3545000
18!
0O!
#3550000
08!
#3555000
18!
1O!
#3560000
08!
#3565000
18!
0O!
#3570000
08!
#3575000
18!
1O!
#3580000
08!
#3585000
18!
0Q!
0O!
#3590000
08!
#3595000
18!
1O!
#3600000
08!
#3605000
18!
0O!
#3610000
08!
#3615000
18!
1O!
0M!
1K!
1I!
1H!
#3620000
08!
#3625000
18!
1R!
0#!
#3630000
08!
#3635000
18!
0R!
1#!
#3640000
08!
#3645000
18!
#3650000
08!
#3655000
18!
#3660000
08!
#3665000
18!
#3670000
08!
#3675000
18!
#3680000
08!
#3685000
18!
#3690000
08!
#3695000
18!
#3700000
08!
#3705000
18!
#3710000
08!
#3715000
18!
#3720000
08!
#3725000
18!
#3730000
08!
#3735000
18!
19!
1@!
1?!
1=!
1<!
#3740000
08!
#3745000
18!
0O!
09!
1M!
#3750000
08!
#3755000
18!
1O!
#3760000
08!
#3765000
18!
1Q!
0O!
1P!
#3770000
08!
#3775000
18!
1O!
#3780000
08!
#3785000
18!
0Q!
0O!
#3790000
08!
#3795000
18!
1O!
#3800000
08!
#3805000
18!
1Q!
0O!
0P!
#3810000
08!
#3815000
18!
1O!
#3820000
08!
#3825000
18!
0O!
1P!
#3830000
08!
#3835000
18!
1O!
#3840000
08!
#3845000
18!
0Q!
0O!
#3850000
08!
#3855000
18!
1O!
#3860000
08!
#3865000
18!
0O!
0P!
#3870000
08!
#3875000
18!
1O!
#3880000
08!
#3885000
18!
0O!
#3890000
08!
#3895000
18!
1O!
0M!
0J!
0G!
#3900000
08!
#3905000
18!
#3910000
08!
#3915000
18!
#3920000
08!
#3925000
18!
#3930000
08!
#3935000
18!
19!
0@!
1>!
0=!
#3940000
08!
#3945000
18!
0O!
09!
1M!
#3950000
08!
#3955000
18!
1O!
#3960000
08!
#3965000
18!
0O!
#3970000
08!
#3975000
18!
1O!
#3980000
08!
#3985000
18!
1Q!
0O!
1P!
#3990000
08!
#3995000
18!
1O!
#4000000
08!
#4005000
18!
0Q!
0O!
#4010000
08!
#4015000
18!
1O!
#4020000
08!
#4025000
18!
0O!
0P!
#4030000
08!
#4035000
18!
1O!
#4040000
08!
#4045000
18!
1Q!
0O!
1P!
#4050000
08!
#4055000
18!
1O!
#4060000
08!
#4065000
18!
0Q!
0O!
0P!
#4070000
08!
#4075000
18!
1O!
#4080000
08!
#4085000
18!
0O!
#4090000
08!
#4095000
18!
1O!
0M!
0K!
1J!
0I!
0H!
1G!
#4100000
08!
#4105000
18!
#4110000
08!
#4115000
18!
#4120000
08!
#4125000
18!
#4130000
08!
#4135000
18!
19!
0?!
0>!
0<!
#4140000
08!
#4145000
18!
0O!
09!
1M!
#4150000
08!
#4155000
18!
1O!
#4160000
08!
#4165000
18!
1Q!
0O!
#4170000
08!
#4175000
18!
1O!
#4180000
08!
#4185000
18!
0O!
#4190000
08!
#4195000
18!
1O!
#4200000
08!
#4205000
18!
0O!
#4210000
08!
#4215000
18!
1O!
#4220000
08!
#4225000
18!
0O!
#4230000
08!
#4235000
18!
1O!
#4240000
08!
#4245000
18!
0O!
#4250000
08!
#4255000
18!
1O!
#4260000
08!
#4265000
18!
0Q!
0O!
#4270000
08!
#4275000
18!
1O!
#4280000
08!
#4285000
18!
0O!
#4290000
08!
#4295000
18!
1O!
0M!
1K!
1I!
1H!
#4300000
08!
#4305000
18!
1R!
0#!
#4310000
08!
#4315000
18!
0R!
1#!
#4320000
08!
#4325000
18!
#4330000
08!
#4335000
18!
#4340000
08!
#4345000
18!
#4350000
08!
#4355000
18!
#4360000
08!
#4365000
18!
#4370000
08!
#4375000
18!
#4380000
08!
#4385000
18!
#4390000
08!
#4395000
18!
#4400000
08!
#4405000
18!
#4410000
08!
#4415000
18!
19!
1@!
1?!
1=!
1<!
#4420000
08!
#4425000
18!
0O!
09!
1M!
#4430000
08!
#4435000
18!
1O!
#4440000
08!
#4445000
18!
1Q!
0O!
1P!
#4450000
08!
#4455000
18!
1O!
#4460000
08!
#4465000
18!
0Q!
0O!
#4470000
08!
#4475000
18!
1O!
#4480000
08!
#4485000
18!
1Q!
0O!
0P!
#4490000
08!
#4495000
18!
1O!
#4500000
08!
#4505000
18!
0O!
1P!
#4510000
08!
#4515000
18!
1O!
#4520000
08!
#4525000
18!
0Q!
0O!
#4530000
08!
#4535000
18!
1O!
#4540000
08!
#4545000
18!
0O!
0P!
#4550000
08!
#4555000
18!
1O!
#4560000
08!
#4565000
18!
0O!
#4570000
08!
#4575000
18!
1O!
0M!
0J!
0G!
#4580000
08!
#4585000
18!
#4590000
08!
#4595000
18!
#4600000
08!
#4605000
18!
#4610000
08!
#4615000
18!
19!
0@!
1>!
0=!
#4620000
08!
#4625000
18!
0O!
09!
1M!
#4630000
08!
#4635000
18!
1O!
#4640000
08!
#4645000
18!
0O!
#4650000
08!
#4655000
18!
1O!
#4660000
08!
#4665000
18!
1Q!
0O!
1P!
#4670000
08!
#4675000
18!
1O!
#4680000
08!
#4685000
18!
0Q!
0O!
#4690000
08!
#4695000
18!
1O!
#4700000
08!
#4705000
18!
0O!
0P!
#4710000
08!
#4715000
18!
1O!
#4720000
08!
#4725000
18!
1Q!
0O!
1P!
#4730000
08!
#4735000
18!
1O!
#4740000
08!
#4745000
18!
0Q!
0O!
0P!
#4750000
08!
#4755000
18!
1O!
#4760000
08!
#4765000
18!
0O!
#4770000
08!
#4775000
18!
1O!
0M!
0K!
1J!
0I!
0H!
1G!
#4780000
08!
#4785000
18!
#4790000
08!
#4795000
18!
#4800000
08!
#4805000
18!
#4810000
08!
#4815000
18!
19!
0?!
0>!
0<!
#4820000
08!
#4825000
18!
0O!
09!
1M!
#4830000
08!
#4835000
18!
1O!
#4840000
08!
#4845000
18!
1Q!
0O!
#4850000
08!
#4855000
18!
1O!
#4860000
08!
#4865000
18!
0O!
#4870000
08!
#4875000
18!
1O!
#4880000
08!
#4885000
18!
0O!
#4890000
08!
#4895000
18!
1O!
#4900000
08!
#4905000
18!
0O!
#4910000
08!
#4915000
18!
1O!
#4920000
08!
#4925000
18!
0O!
#4930000
08!
#4935000
18!
1O!
#4940000
08!
#4945000
18!
0Q!
0O!
#4950000
08!
#4955000
18!
1O!
#4960000
08!
#4965000
18!
0O!
#4970000
08!
#4975000
18!
1O!
0M!
1K!
1I!
1H!
#4980000
08!
#4985000
18!
1R!
0#!
#4990000
08!
#4995000
18!
0R!
1#!
#5000000
08!
#5005000
18!
#5010000
08!
#5015000
18!
#5020000
08!
#5025000
18!
#5030000
08!
#5035000
18!
#5040000
08!
#5045000
18!
#5050000
08!
